Inferencia bayesiana en la práctica: MCMC
…
Rank-normalized split effective sample size satisfactory for all parameters.

Rank-normalized split R-hat values satisfactory for all parameters.

Processing complete, no problems detected.

Code

# Resumimos las marginales usando el paquete 'posterior' summaries
summ <- fit_mcmc$summary()
print(summ)

# A tibble: 27 × 10
   variable     mean  median     sd    mad      q5     q95  rhat ess_bulk
   <chr>       <dbl>   <dbl>  <dbl>  <dbl>   <dbl>   <dbl> <dbl>    <dbl>
 1 lp__      340.    340.    1.00   0.744  338.    341.     1.01    1016.
 2 alpha       0.135   0.141 0.281  0.288   -0.322   0.582  1.01     626.
 3 beta        0.161   0.161 0.0192 0.0195   0.130   0.192  1.01     610.
 4 lambda[1]  12.3    12.3   0.799  0.818   11.0    13.6    1.00    3717.
 5 lambda[2]   5.22    5.20  0.592  0.602    4.29    6.21   1.01     833.
 6 lambda[3]   4.27    4.24  0.572  0.581    3.38    5.23   1.01     745.
 7 lambda[4]  13.6    13.6   0.925  0.919   12.2    15.2    1.00    3066.
 8 lambda[5]   7.36    7.34  0.610  0.624    6.38    8.36   1.00    1284.
 9 lambda[6]   7.61    7.59  0.613  0.624    6.62    8.61   1.00    1359.
10 lambda[7]   6.31    6.29  0.603  0.614    5.35    7.30   1.01    1015.
# ℹ 17 more rows
# ℹ 1 more variable: ess_tail <dbl>
…
